{
  "HEADER": {
    "HOME": "Home",
    "TRADE": "Trade",
    "WALLET": "Wallet",
    "ORDERS": "Orders"
  },
  "FOOTER": {
    "SUPPORT": "Support",
    "ABOUT_US": "About us",
    "TERMS_OF_SERVICE": "Terms of Service",
    "PRIVACY_POLICY": "Privacy Policy",
    "FEES": "Fees"
  },
  "COMMON": {
    "LOGIN": "Log in",
    "SIGNUP": "Sign up",
    "LOGOUT": "Log out",
    "OPEN_ORDERS": "Open Orders",
    "DEALT_ORDERS": "Dealt Orders",
    "TIME": "Time",
    "DATETIME": "Datetime",
    "STATUS": "Status",
    "RESET": "Reset",
    "CANCEL": "Cancel",
    "OPERATION": "Operation",
    "AMOUNT": "Amount",
    "TRADENOW": "Trade",
    "RECORDS": " Records",
    "SETTINGS": " Settings",
    "NAME": "Name",
    "WHITELIST": "White list",
    "PERMISSIONS": "Permissions",
    "ENABLED": "Enabled",
    "DISABLED": "Disabled",
    "ADDRESS": "Address",
    "EXPORT": "Export",
    "SUCCESS": "Succeeded",
    "FAILURE": "Failed",
    "IN_PROCESS": "In Process"
  },
  "FORGETPASSWORD":{
		 "Retrievepassword" :"Retrieve password",
		 "County":"Select Country",
		 "JP":"Japan",
		 "ZH":"China",
		 "Phone" : "phone",
		 "Country_Code":"Code",
		 "Valid_Phone_Number":"please enter a valid phone number",
		 "Eenter_Phone_Number":"Please input your phone number",
		 "New_Password":"new password",
		 "Consist_Least_6_characters":"The minimum length of password is 6 characters",
		 "Please_fill_password":"Please enter your password",
		 "Verification_Code":"Verification Code",
		 "Enter_verification_Code":"Please enter verification code",
		 "Verification_Code_Error":"Verification code error",
		 "Determine":"Determine",
		 "Tips":"Verification code",
		 "Reacquire":"Reacquire",
		 "Mobile_Number_Login":"Mobile number login",
		 "Mobile_Number_Registration":"Mobile number registration",
		 "Bind_Phone_Number":"Bind phone number",
		 "binding" :"Unbind",
		 "Phone_Number_Binding":"Phone number binding",
		 "Login_Method":"Login Method",
		 "SignUp_Method":"SignUp Method"
  },
  "USER": {
    "EMAIL": "Email",
    "EMAIL_PLZ": "Please input your email",
    "PASSWORD_PLZ": "Please input your password",
    "EMAIL_INVALID": "Please input an valid email address",
    "PASSWORD_INVALID": "The minimum length of password is 6 characters",
    "FORGET_PASSWORD": "Forget password?",
    "NOT_USER_YET": "Not a GlenBit user yet?",
    "SIGNUP_NOW": "Sign up now",
    "PASSWORD": "Login Password",
    "COMFIRM_PASSWORD": "Confirmation password",
    "CONFIRM_PASSWORD_PLZ": "Please enter the same password as above",
    "CONFIRM_PASSWORD_INVALID": "Confirmation password does not match",
    "AGREED": "I have read and agreed to",
    "REQUIRED": "Required",
    "SIGNUP_SUCCESS": "Signed up successfully!",
    "ACTIVATION_EMAIL_SENT": "We've sent an activation email to the address you provided as below :)",
    "ACCOUNT": "Account",
    "OVERVIEW": "Overview",
    "LAST_LOGIN_AT": "Last logged in at",
    "LAST_LOGIN_IP": "Last logged in IP",
    "KYC": "KYC Verification",
    "24H_WITHDRAW_LIMIT": "24h Withdraw limit",
    "SECURITY": "Security",
    "GOOGLE_TWO_STEP": "Google 2-step authentication",
    "SMS_VERIFY": "SMS Verification",
    "LOGIN_HISTORY": "Login History",
    "RECENT_LOGINS": "Recent Logins",
    "IS_VALID": "Valid"
  },
  "WALLET": {
    "COIN": "Coin",
    "AVAILABLE": "Available",
    "FREEZE": "Freeze",
    "MY_PORTFOLIO": "My Portfolio",
    "DEPOSIT": "Deposit",
    "WITHDRAW": "Withdraw",
    "BLOCKCHAIN": "Blockchain",
    "PENDING_DEPOSIT": "Pending Deposit",
    "ASSET_VALUE": "Total Assets Value",
    "CURRENT_FX": "Current exchange rate"
  },
  "TRADE": {
    "PRICE": "Price",
    "TOTAL_PRICE": "Total Price",
    "OPEN_AMOUNT": "Amount",
    "FILLED": "Filled",
    "PAIR": "Pair",
    "LATEST_PRICE": "Latest Price",
    "24H_CHANGE": "24h Change",
    "24H_HIGH": "24h High",
    "24H_LOW": "24h Low",
    "RATIO": "Ratio",
    "VOLUME": "Volume",
    "FEE": "Fee",
    "MAX": "Max",
    "BUY_OR_SELL": "Buy / Sell",
    "BUY": "Buy",
    "BUY_PRICE": "Buy Price",
    "BUY_AMOUNT": "Buy Amount",
    "SELL": "Sell",
    "SELL_PRICE": "Sell Price",
    "SELL_AMOUNT": "Sell Amount"
  }
}
